// Jest Snapshot v1, https://goo.gl/fbAQLP

exports[`Details Page should render correctly 1`] = `
<DocumentFragment>
  <div
    class="id__StyledDetails-sc-cfd24r-0 lYGEQ pokemon-details"
  >
    <div
      class="Header__StyledHeader-sc-a7x1aa-0 gKHNVd header__header"
    >
      <div
        class="header__content"
      >
        <button
          class="header__btn"
          type="button"
        >
          ‹ Pokédex
        </button>
        <p
          class="header__id"
        >
          #1
        </p>
      </div>
      <div
        class="header__image-container"
      >
        <img
          alt="bulbasaur"
          class="header__image"
          height="150"
          src="https://raw.githubusercontent.com/PokeAPI/sprites/master/sprites/pokemon/other/dream-world/1.svg"
          width="150"
        />
      </div>
    </div>
    <div
      class="pokemon-details__contents"
    >
      <h1
        class="Name__PokemonName-sc-1iy40fw-0 euUAqt"
      >
        bulbasaur
      </h1>
      <div
        class="pokemon-details__types"
      >
        <ul
          class="Types__StyledTypes-sc-f78uor-0 kYGvYB"
        >
          <li
            class="Type__StyledType-sc-93bf5v-0 gfSdDK Types__StyledType-sc-f78uor-1 wiKWX"
          >
            grass
          </li>
          <li
            class="Type__StyledType-sc-93bf5v-0 gfSdDK Types__StyledType-sc-f78uor-1 wiKWX"
          >
            poison
          </li>
        </ul>
      </div>
      <div
        class="pokemon-details__psychical"
      >
        <div
          class="Weight__StyledWeight-sc-ytrssg-0 hxvzUk weight"
        >
          <span
            class="weight__no"
          >
            69 kg
          </span>
          <span
            class="weight__label"
          >
            Weight
          </span>
        </div>
        <div
          class="Height__StyledHeight-sc-p5woxs-0 qRmd height"
        >
          <span
            class="height__no"
          >
            7 m
          </span>
          <span
            class="height__label"
          >
            Height
          </span>
        </div>
      </div>
      <div
        class="pokemon-details__stats"
      >
        <div
          class="Stats__StyledStats-sc-1hzgqnm-0 fPutaT stats"
        >
          <p
            class="stats__title"
          >
            Base stats
          </p>
          <ul
            class="stats__list"
          >
            <li
              class="Stat__StyledStat-sc-hav8fd-0 htwlTX"
            >
              45 - hp
            </li>
            <li
              class="Stat__StyledStat-sc-hav8fd-0 htwlTX"
            >
              49 - attack
            </li>
            <li
              class="Stat__StyledStat-sc-hav8fd-0 htwlTX"
            >
              49 - defense
            </li>
            <li
              class="Stat__StyledStat-sc-hav8fd-0 htwlTX"
            >
              65 - special-attack
            </li>
            <li
              class="Stat__StyledStat-sc-hav8fd-0 htwlTX"
            >
              65 - special-defense
            </li>
            <li
              class="Stat__StyledStat-sc-hav8fd-0 htwlTX"
            >
              45 - speed
            </li>
          </ul>
        </div>
      </div>
    </div>
  </div>
</DocumentFragment>
`;
